<?xml version="1.0" encoding="utf-8"?>
<!-- Generator: Adobe Illustrator 16.0.0, SVG Export Plug-In . SVG Version: 6.00 Build 0)  -->
<!DOCTYPE svg PUBLIC "-//W3C//DTD SVG 1.1//EN" "http://www.w3.org/Graphics/SVG/1.1/DTD/svg11.dtd">
<svg version="1.1" id="Calque_1" xmlns="http://www.w3.org/2000/svg" xmlns:xlink="http://www.w3.org/1999/xlink" x="0px" y="0px"
	 width="24px" height="14px" viewBox="0 0 24 14" enable-background="new 0 0 24 14" xml:space="preserve">
<g>
	<g>
		<path fill-rule="evenodd" clip-rule="evenodd" fill="#ADADAD" d="M23.686,0.32c-0.431-0.427-1.128-0.427-1.559,0L11.999,10.375
			L1.872,0.32c-0.432-0.427-1.128-0.427-1.56,0c-0.429,0.427-0.429,1.12,0,1.547L11.22,12.695c0.431,0.427,1.127,0.427,1.559,0
			L23.686,1.867C24.116,1.439,24.116,0.747,23.686,0.32z"/>
	</g>
</g>
</svg>
